<?xml version="1.0" encoding="utf-8"?>
<!-- Generator: Adobe Illustrator 22.0.1, SVG Export Plug-In . SVG Version: 6.00 Build 0)  -->
<svg version="1.1" id="Layer_1" xmlns="http://www.w3.org/2000/svg" xmlns:xlink="http://www.w3.org/1999/xlink" x="0px" y="0px"
	 viewBox="0 0 35 35" style="enable-background:new 0 0 35 35;" xml:space="preserve">
<path style="fill:#393939;" d="M28.959,6.393c0-3.437-2.795-6.232-6.232-6.232c-2.189,0-4.115,1.137-5.226,2.849
	c-1.112-1.712-3.037-2.849-5.226-2.849c-3.437,0-6.232,2.795-6.232,6.232c0,3.128,2.319,5.717,5.327,6.158v15.907l0.008,0.156
	c0.221,2.153,1.837,6.225,6.373,6.225c4.316,0,5.883-3.518,5.883-5.882V12.551C26.64,12.111,28.959,9.521,28.959,6.393z
	 M14.412,12.238c1.276-0.469,2.358-1.339,3.088-2.463c0.73,1.123,1.811,1.994,3.088,2.463v11.083h-6.175V12.238z M9.086,6.393
	c0-1.758,1.43-3.188,3.188-3.188s3.188,1.43,3.188,3.188c0,1.757-1.43,3.187-3.188,3.187S9.086,8.15,9.086,6.393z M17.749,31.795
	c-2.735,0-3.26-2.867-3.337-3.429v-2.001h6.175v2.579C20.577,29.613,20.339,31.795,17.749,31.795z M22.726,9.58
	c-1.758,0-3.188-1.43-3.188-3.187c0-1.758,1.43-3.188,3.188-3.188c1.758,0,3.188,1.43,3.188,3.188
	C25.914,8.15,24.484,9.58,22.726,9.58z"/>
</svg>
