<?xml version="1.0" encoding="utf-8"?>
<!-- Generator: Adobe Illustrator 22.0.1, SVG Export Plug-In . SVG Version: 6.00 Build 0)  -->
<svg version="1.1" id="Layer_1" xmlns="http://www.w3.org/2000/svg" xmlns:xlink="http://www.w3.org/1999/xlink" x="0px" y="0px"
	 viewBox="0 0 35 35" style="enable-background:new 0 0 35 35;" xml:space="preserve">
<g>
	<rect x="0.569" y="12.7" transform="matrix(0.7071 -0.7071 0.7071 0.7071 -8.1983 8.8136)" width="11.941" height="3.206"/>
	<g>
		<g>
			<circle style="fill:#B0D8FF;" cx="7.274" cy="18.952" r="3.894"/>
			<path d="M7.274,11.852c-3.915,0-7.1,3.185-7.1,7.1s3.185,7.1,7.1,7.1s7.1-3.185,7.1-7.1S11.189,11.852,7.274,11.852z
				 M7.274,22.846c-2.147,0-3.894-1.747-3.894-3.894s1.747-3.894,3.894-3.894s3.894,1.747,3.894,3.894S9.421,22.846,7.274,22.846z"
				/>
		</g>
	</g>
	<g>
		<g>
			<path style="fill:#B0D8FF;" d="M22.068,15.058c-2.147,0-3.894,1.747-3.894,3.894s1.747,3.894,3.894,3.894
				s3.893-1.747,3.893-3.894S24.215,15.058,22.068,15.058z"/>
			<path d="M22.068,11.852c-3.915,0-7.1,3.185-7.1,7.1s3.185,7.1,7.1,7.1c3.914,0,7.099-3.185,7.099-7.1
				S25.982,11.852,22.068,11.852z M22.068,22.846c-2.147,0-3.894-1.747-3.894-3.894s1.747-3.894,3.894-3.894
				s3.893,1.747,3.893,3.894S24.215,22.846,22.068,22.846z"/>
		</g>
	</g>
	<rect x="12.894" y="16.332" width="3.195" height="3.206"/>
	<rect x="26.295" y="14.285" transform="matrix(0.7071 -0.7071 0.7071 0.7071 -2.2637 26.3109)" width="8.667" height="3.206"/>
</g>
</svg>
