<?xml version="1.0" encoding="utf-8"?>
<!-- Generator: Adobe Illustrator 22.0.1, SVG Export Plug-In . SVG Version: 6.00 Build 0)  -->
<svg version="1.1" id="Layer_1" xmlns="http://www.w3.org/2000/svg" xmlns:xlink="http://www.w3.org/1999/xlink" x="0px" y="0px"
	 viewBox="0 0 35 35" style="enable-background:new 0 0 35 35;" xml:space="preserve">
<g>
	<g>
		<path style="fill:#FF5303;" d="M3.174,28.744C-2.182,20.995-0.321,10.218,7.322,4.72c3.775-2.715,8.376-3.795,12.972-3.049
			c4.589,0.75,8.611,3.242,11.328,7.017c2.573,3.579,3.681,7.969,3.121,12.366l-5.635-0.718c0.38-2.966-0.366-5.924-2.098-8.331
			c-1.829-2.544-4.539-4.223-7.631-4.728c-3.095-0.503-6.196,0.225-8.74,2.055c-5.149,3.702-6.401,10.963-2.792,16.184L3.174,28.744
			z"/>
	</g>
	<g>
		<path style="fill:#FFFFFF;" d="M22.16,14.085c-3.803,0-6.898,3.093-6.898,6.896s3.095,6.898,6.898,6.898s6.898-3.095,6.898-6.898
			S25.964,14.085,22.16,14.085z"/>
		<path d="M22.16,8.406c-6.935,0-12.577,5.642-12.577,12.575c0,6.935,5.642,12.577,12.577,12.577s12.577-5.642,12.577-12.577
			C34.737,14.048,29.096,8.406,22.16,8.406z M22.16,27.88c-3.803,0-6.898-3.095-6.898-6.898s3.095-6.896,6.898-6.896
			s6.898,3.093,6.898,6.896S25.964,27.88,22.16,27.88z"/>
	</g>
</g>
</svg>
