<?xml version="1.0" encoding="utf-8"?>
<!-- Generator: Adobe Illustrator 22.0.1, SVG Export Plug-In . SVG Version: 6.00 Build 0)  -->
<svg version="1.1" id="Layer_1" xmlns="http://www.w3.org/2000/svg" xmlns:xlink="http://www.w3.org/1999/xlink" x="0px" y="0px"
	 viewBox="0 0 54.22 39.4" style="enable-background:new 0 0 54.22 39.4;" xml:space="preserve">
<style type="text/css">
	.st0{fill:url(#SVGID_1_);}
	.st1{fill:url(#SVGID_2_);}
	.st2{fill:url(#SVGID_3_);}
	.st3{fill:url(#SVGID_4_);}
	.st4{fill:url(#SVGID_5_);}
	.st5{fill:url(#SVGID_6_);}
	.st6{fill:url(#SVGID_7_);}
	.st7{fill:url(#SVGID_8_);}
	.st8{fill:url(#SVGID_9_);}
	.st9{fill:url(#SVGID_10_);}
	.st10{fill:url(#SVGID_11_);}
	.st11{fill:url(#SVGID_12_);}
	.st12{fill:#5F0066;}
</style>
<g>
	
		<linearGradient id="SVGID_1_" gradientUnits="userSpaceOnUse" x1="13.0544" y1="15.7234" x2="13.0544" y2="5.6821" gradientTransform="matrix(1 0 0 -1 0 43.5195)">
		<stop  offset="0" style="stop-color:#DE2574"/>
		<stop  offset="0.2277" style="stop-color:#DB2472"/>
		<stop  offset="0.3935" style="stop-color:#D2226E"/>
		<stop  offset="0.5398" style="stop-color:#C21F66"/>
		<stop  offset="0.6747" style="stop-color:#AB1A5A"/>
		<stop  offset="0.8018" style="stop-color:#8E144B"/>
		<stop  offset="0.9215" style="stop-color:#6B0C39"/>
		<stop  offset="1" style="stop-color:#50062B"/>
	</linearGradient>
	<path class="st0" d="M9.43,28.69c-0.63,0.24-1.12,0.61-1.47,1.12c-0.35,0.5-0.52,1.12-0.52,1.85c0,0.33,0.03,0.56,0.09,0.69
		c0.06,0.13,0.09,0.2,0.09,0.22c-0.48,0-0.84-0.1-1.08-0.3c-0.24-0.2-0.36-0.53-0.36-1c0-0.57,0.24-1.13,0.7-1.67
		c0.47-0.54,1.07-0.98,1.8-1.31c0.73-0.33,1.46-0.5,2.2-0.5c0.13,0,0.3,0.01,0.54,0.03l0.12,8.23l2.81-8.19h1.7l0.12,8.19l2.81-8.19
		h0.94l-3.72,9.97h-1.93l-0.16-6.81l-2.54,6.81H9.64L9.43,28.69z"/>
	
		<linearGradient id="SVGID_2_" gradientUnits="userSpaceOnUse" x1="22.7008" y1="12.443" x2="22.7008" y2="5.6018" gradientTransform="matrix(1 0 0 -1 0 43.5195)">
		<stop  offset="0" style="stop-color:#DE2574"/>
		<stop  offset="0.2277" style="stop-color:#DB2472"/>
		<stop  offset="0.3935" style="stop-color:#D2226E"/>
		<stop  offset="0.5398" style="stop-color:#C21F66"/>
		<stop  offset="0.6747" style="stop-color:#AB1A5A"/>
		<stop  offset="0.8018" style="stop-color:#8E144B"/>
		<stop  offset="0.9215" style="stop-color:#6B0C39"/>
		<stop  offset="1" style="stop-color:#50062B"/>
	</linearGradient>
	<path class="st1" d="M19.32,37.4c-0.34-0.35-0.51-0.89-0.51-1.63c0-0.66,0.13-1.35,0.4-2.08c0.26-0.73,0.66-1.34,1.18-1.85
		c0.52-0.5,1.14-0.76,1.87-0.76c0.36,0,0.64,0.06,0.82,0.19c0.18,0.13,0.27,0.29,0.27,0.49v0.09l0.15-0.71h1.93l-0.96,4.55
		c-0.04,0.13-0.05,0.28-0.05,0.43c0,0.38,0.18,0.58,0.55,0.58c0.25,0,0.47-0.12,0.65-0.35c0.18-0.23,0.33-0.54,0.44-0.91h0.56
		c-0.33,0.96-0.74,1.62-1.22,1.96c-0.49,0.34-0.98,0.52-1.47,0.52c-0.37,0-0.68-0.1-0.9-0.31c-0.23-0.21-0.36-0.52-0.41-0.92
		c-0.26,0.37-0.55,0.66-0.86,0.89c-0.32,0.23-0.69,0.34-1.13,0.34C20.08,37.92,19.66,37.74,19.32,37.4z M22.13,36.3
		c0.22-0.21,0.37-0.5,0.45-0.86l0.64-3.03c0-0.12-0.04-0.23-0.13-0.34c-0.09-0.11-0.23-0.17-0.42-0.17c-0.36,0-0.68,0.21-0.96,0.62
		c-0.29,0.42-0.51,0.92-0.67,1.5c-0.16,0.58-0.24,1.1-0.24,1.55s0.07,0.73,0.19,0.86c0.13,0.13,0.29,0.19,0.47,0.19
		C21.69,36.62,21.91,36.51,22.13,36.3z"/>
	
		<linearGradient id="SVGID_3_" gradientUnits="userSpaceOnUse" x1="28.043" y1="14.4912" x2="28.043" y2="5.6018" gradientTransform="matrix(1 0 0 -1 0 43.5195)">
		<stop  offset="0" style="stop-color:#DE2574"/>
		<stop  offset="0.2277" style="stop-color:#DB2472"/>
		<stop  offset="0.3935" style="stop-color:#D2226E"/>
		<stop  offset="0.5398" style="stop-color:#C21F66"/>
		<stop  offset="0.6747" style="stop-color:#AB1A5A"/>
		<stop  offset="0.8018" style="stop-color:#8E144B"/>
		<stop  offset="0.9215" style="stop-color:#6B0C39"/>
		<stop  offset="1" style="stop-color:#50062B"/>
	</linearGradient>
	<path class="st2" d="M26.32,37.52c-0.26-0.27-0.39-0.67-0.39-1.2c0-0.22,0.04-0.51,0.11-0.87l0.8-3.76h-0.44l0.11-0.54h0.44
		l0.4-1.85l1.98-0.27l-0.46,2.12h0.8l-0.11,0.54h-0.8L27.9,35.7c-0.04,0.13-0.05,0.28-0.05,0.43c0,0.18,0.04,0.31,0.13,0.38
		c0.09,0.08,0.23,0.11,0.42,0.11c0.26,0,0.5-0.11,0.72-0.33c0.22-0.22,0.38-0.5,0.48-0.85h0.56c-0.33,0.96-0.75,1.62-1.27,1.96
		c-0.52,0.34-1.03,0.52-1.54,0.52C26.93,37.92,26.58,37.78,26.32,37.52z"/>
	
		<linearGradient id="SVGID_4_" gradientUnits="userSpaceOnUse" x1="32.3138" y1="12.4965" x2="32.3138" y2="5.6023" gradientTransform="matrix(1 0 0 -1 0 43.5195)">
		<stop  offset="0" style="stop-color:#DE2574"/>
		<stop  offset="0.2277" style="stop-color:#DB2472"/>
		<stop  offset="0.3935" style="stop-color:#D2226E"/>
		<stop  offset="0.5398" style="stop-color:#C21F66"/>
		<stop  offset="0.6747" style="stop-color:#AB1A5A"/>
		<stop  offset="0.8018" style="stop-color:#8E144B"/>
		<stop  offset="0.9215" style="stop-color:#6B0C39"/>
		<stop  offset="1" style="stop-color:#50062B"/>
	</linearGradient>
	<path class="st3" d="M29.98,37.4c-0.37-0.34-0.55-0.88-0.55-1.61c0-0.62,0.12-1.29,0.36-2.03c0.24-0.74,0.63-1.38,1.18-1.92
		c0.54-0.54,1.24-0.81,2.08-0.81c0.98,0,1.47,0.43,1.47,1.28c0,0.5-0.14,0.96-0.43,1.38c-0.29,0.42-0.66,0.76-1.14,1.01
		c-0.47,0.25-0.98,0.4-1.51,0.44c-0.02,0.27-0.03,0.45-0.03,0.54c0,0.44,0.08,0.73,0.23,0.89c0.15,0.16,0.4,0.23,0.74,0.23
		c0.48,0,0.89-0.11,1.24-0.34c0.34-0.22,0.72-0.56,1.13-1.02h0.46c-0.99,1.65-2.22,2.48-3.68,2.48
		C30.86,37.92,30.34,37.75,29.98,37.4z M32.49,34.14c0.3-0.21,0.54-0.49,0.72-0.82c0.18-0.33,0.27-0.68,0.27-1.04
		c0-0.37-0.11-0.55-0.33-0.55c-0.32,0-0.64,0.28-0.94,0.84c-0.31,0.56-0.53,1.2-0.66,1.91C31.87,34.47,32.19,34.36,32.49,34.14z"/>
	
		<linearGradient id="SVGID_5_" gradientUnits="userSpaceOnUse" x1="38.2383" y1="15.054" x2="38.2383" y2="5.6028" gradientTransform="matrix(1 0 0 -1 0 43.5195)">
		<stop  offset="0" style="stop-color:#DE2574"/>
		<stop  offset="0.2277" style="stop-color:#DB2472"/>
		<stop  offset="0.3935" style="stop-color:#D2226E"/>
		<stop  offset="0.5398" style="stop-color:#C21F66"/>
		<stop  offset="0.6747" style="stop-color:#AB1A5A"/>
		<stop  offset="0.8018" style="stop-color:#8E144B"/>
		<stop  offset="0.9215" style="stop-color:#6B0C39"/>
		<stop  offset="1" style="stop-color:#50062B"/>
	</linearGradient>
	<path class="st4" d="M38.52,37.52c-0.29-0.26-0.43-0.64-0.43-1.13c0-0.21,0.03-0.45,0.08-0.7l0.11-0.52
		c0.04-0.15,0.05-0.32,0.05-0.49c0-0.43-0.16-0.64-0.48-0.64c-0.14,0-0.29,0.04-0.45,0.12c-0.16,0.08-0.34,0.21-0.54,0.38l-0.7,3.31
		h-1.93l1.94-9.1l1.98-0.27l-1,4.71l2.59-2.03h1.32L38.39,33c0.13-0.04,0.28-0.05,0.44-0.05c0.48,0,0.85,0.15,1.1,0.44
		c0.25,0.29,0.37,0.67,0.37,1.12c0,0.19-0.02,0.36-0.05,0.51l-0.15,0.67c-0.04,0.16-0.07,0.3-0.07,0.43c0,0.33,0.17,0.49,0.52,0.49
		c0.27,0,0.48-0.1,0.64-0.29c0.16-0.19,0.32-0.49,0.48-0.89h0.56c-0.55,1.65-1.38,2.48-2.46,2.48
		C39.22,37.92,38.8,37.79,38.52,37.52z"/>
	
		<linearGradient id="SVGID_6_" gradientUnits="userSpaceOnUse" x1="44.3903" y1="12.4965" x2="44.3903" y2="5.6023" gradientTransform="matrix(1 0 0 -1 0 43.5195)">
		<stop  offset="0" style="stop-color:#DE2574"/>
		<stop  offset="0.2277" style="stop-color:#DB2472"/>
		<stop  offset="0.3935" style="stop-color:#D2226E"/>
		<stop  offset="0.5398" style="stop-color:#C21F66"/>
		<stop  offset="0.6747" style="stop-color:#AB1A5A"/>
		<stop  offset="0.8018" style="stop-color:#8E144B"/>
		<stop  offset="0.9215" style="stop-color:#6B0C39"/>
		<stop  offset="1" style="stop-color:#50062B"/>
	</linearGradient>
	<path class="st5" d="M42.05,37.4c-0.37-0.34-0.55-0.88-0.55-1.61c0-0.62,0.12-1.29,0.36-2.03c0.24-0.74,0.63-1.38,1.18-1.92
		c0.54-0.54,1.24-0.81,2.08-0.81c0.98,0,1.47,0.43,1.47,1.28c0,0.5-0.14,0.96-0.43,1.38c-0.29,0.42-0.66,0.76-1.14,1.01
		c-0.47,0.25-0.98,0.4-1.51,0.44c-0.02,0.27-0.03,0.45-0.03,0.54c0,0.44,0.08,0.73,0.23,0.89c0.15,0.16,0.4,0.23,0.74,0.23
		c0.48,0,0.89-0.11,1.24-0.34c0.34-0.22,0.72-0.56,1.13-1.02h0.46c-0.99,1.65-2.22,2.48-3.68,2.48
		C42.93,37.92,42.42,37.75,42.05,37.4z M44.56,34.14c0.3-0.21,0.54-0.49,0.72-0.82c0.18-0.33,0.27-0.68,0.27-1.04
		c0-0.37-0.11-0.55-0.33-0.55c-0.32,0-0.64,0.28-0.94,0.84c-0.31,0.56-0.53,1.2-0.66,1.91C43.95,34.47,44.27,34.36,44.56,34.14z"/>
	
		<linearGradient id="SVGID_7_" gradientUnits="userSpaceOnUse" x1="48.7068" y1="12.7913" x2="48.7068" y2="5.6028" gradientTransform="matrix(1 0 0 -1 0 43.5195)">
		<stop  offset="0" style="stop-color:#DE2574"/>
		<stop  offset="0.2277" style="stop-color:#DB2472"/>
		<stop  offset="0.3935" style="stop-color:#D2226E"/>
		<stop  offset="0.5398" style="stop-color:#C21F66"/>
		<stop  offset="0.6747" style="stop-color:#AB1A5A"/>
		<stop  offset="0.8018" style="stop-color:#8E144B"/>
		<stop  offset="0.9215" style="stop-color:#6B0C39"/>
		<stop  offset="1" style="stop-color:#50062B"/>
	</linearGradient>
	<path class="st6" d="M47.26,37.67c-0.29-0.17-0.51-0.38-0.66-0.64c-0.14-0.26-0.21-0.54-0.21-0.82c0-0.29,0.07-0.55,0.21-0.77
		c0.14-0.22,0.31-0.38,0.5-0.48c0.35-0.62,0.65-1.26,0.91-1.89c0.26-0.64,0.5-1.33,0.74-2.07l1.98-0.27
		c0.04,1.14,0.12,2.38,0.23,3.71c0.04,0.54,0.07,0.92,0.07,1.16c0,0.54-0.14,0.99-0.42,1.34c-0.28,0.35-0.62,0.6-1.02,0.75
		c-0.41,0.15-0.82,0.23-1.24,0.23C47.92,37.92,47.56,37.84,47.26,37.67z M48.75,36.57c0.22-0.2,0.33-0.51,0.33-0.95
		c0-0.27-0.03-0.64-0.08-1.12c-0.09-1.02-0.15-1.7-0.17-2.05c-0.21,0.71-0.58,1.55-1.08,2.53c0.21,0.11,0.31,0.26,0.31,0.47
		c0,0.17-0.06,0.32-0.17,0.46c-0.11,0.13-0.25,0.2-0.42,0.2c-0.19,0-0.31-0.06-0.36-0.17c0,0.32,0.07,0.56,0.19,0.71
		c0.13,0.15,0.34,0.23,0.62,0.23C48.25,36.86,48.52,36.76,48.75,36.57z"/>
</g>
<g>
	
		<linearGradient id="SVGID_8_" gradientUnits="userSpaceOnUse" x1="25.6789" y1="18.784" x2="25.6789" y2="42.5072" gradientTransform="matrix(1 0 0 -1 0 43.5195)">
		<stop  offset="0" style="stop-color:#DE2574"/>
		<stop  offset="0.1366" style="stop-color:#DA2472"/>
		<stop  offset="0.2868" style="stop-color:#CC226D"/>
		<stop  offset="0.4435" style="stop-color:#B61E64"/>
		<stop  offset="0.6046" style="stop-color:#971957"/>
		<stop  offset="0.7692" style="stop-color:#701247"/>
		<stop  offset="0.9344" style="stop-color:#400A34"/>
		<stop  offset="1" style="stop-color:#2B062B"/>
	</linearGradient>
	<path class="st7" d="M26.45,1.02h0.08c0,0-1.35-0.15-1.81,1.62c-0.34,1.35-0.49,9.85-3.73,16.57c1.13,2.11,2.59,4.05,4.51,5.53
		h0.23c0,0,1.69,0.15,2.48-2.06c0.39-1.1,1.15-6.39,2.13-11.46C29.26,6.08,27.9,1.16,26.45,1.02z"/>
	
		<linearGradient id="SVGID_9_" gradientUnits="userSpaceOnUse" x1="6.8646" y1="30.8274" x2="6.8646" y2="42.5072" gradientTransform="matrix(1 0 0 -1 0 43.5195)">
		<stop  offset="0" style="stop-color:#DEA074"/>
		<stop  offset="0.1366" style="stop-color:#DA9C72"/>
		<stop  offset="0.2868" style="stop-color:#CC916D"/>
		<stop  offset="0.4435" style="stop-color:#B67E64"/>
		<stop  offset="0.6046" style="stop-color:#976357"/>
		<stop  offset="0.7692" style="stop-color:#704147"/>
		<stop  offset="0.9344" style="stop-color:#401834"/>
		<stop  offset="1" style="stop-color:#2B062B"/>
	</linearGradient>
	<path class="st8" d="M6.79,1.02h0.15C6.94,1.02,6.88,1.01,6.79,1.02z"/>
	
		<linearGradient id="SVGID_10_" gradientUnits="userSpaceOnUse" x1="5.0067" y1="30.8274" x2="5.0067" y2="42.4999" gradientTransform="matrix(1 0 0 -1 0 43.5195)">
		<stop  offset="0" style="stop-color:#DEA074"/>
		<stop  offset="0.1366" style="stop-color:#DA9C72"/>
		<stop  offset="0.2868" style="stop-color:#CC916D"/>
		<stop  offset="0.4435" style="stop-color:#B67E64"/>
		<stop  offset="0.6046" style="stop-color:#976357"/>
		<stop  offset="0.7692" style="stop-color:#704147"/>
		<stop  offset="0.9344" style="stop-color:#401834"/>
		<stop  offset="1" style="stop-color:#2B062B"/>
	</linearGradient>
	<path class="st9" d="M6.73,1.02C6.33,1.06,5.48,1.3,5.14,2.64C4.69,4.4,5.56,6.33,0.26,12.67l5.89,0.02c0,0,1.69,0.15,2.48-2.06
		c0.24-0.68,0.63-1.83,1.12-3.11C8.84,3.97,7.81,1.16,6.73,1.02z"/>
	
		<linearGradient id="SVGID_11_" gradientUnits="userSpaceOnUse" x1="45.0545" y1="18.784" x2="45.0545" y2="30.9974" gradientTransform="matrix(1 0 0 -1 0 43.5195)">
		<stop  offset="0" style="stop-color:#2B062B"/>
		<stop  offset="0.0442" style="stop-color:#3F1733"/>
		<stop  offset="0.1524" style="stop-color:#693B44"/>
		<stop  offset="0.2665" style="stop-color:#8D5A53"/>
		<stop  offset="0.3856" style="stop-color:#AA745F"/>
		<stop  offset="0.5113" style="stop-color:#C18768"/>
		<stop  offset="0.6465" style="stop-color:#D1956F"/>
		<stop  offset="0.7981" style="stop-color:#DB9D73"/>
		<stop  offset="1" style="stop-color:#DEA074"/>
	</linearGradient>
	<path class="st10" d="M45.12,24.73h-0.13C44.99,24.73,45.04,24.74,45.12,24.73z"/>
	
		<linearGradient id="SVGID_12_" gradientUnits="userSpaceOnUse" x1="46.7975" y1="18.7957" x2="46.7975" y2="42.5072" gradientTransform="matrix(1 0 0 -1 0 43.5195)">
		<stop  offset="0" style="stop-color:#2B062B"/>
		<stop  offset="0.0442" style="stop-color:#3F1733"/>
		<stop  offset="0.1524" style="stop-color:#693B44"/>
		<stop  offset="0.2665" style="stop-color:#8D5A53"/>
		<stop  offset="0.3856" style="stop-color:#AA745F"/>
		<stop  offset="0.5113" style="stop-color:#C18768"/>
		<stop  offset="0.6465" style="stop-color:#D1956F"/>
		<stop  offset="0.7981" style="stop-color:#DB9D73"/>
		<stop  offset="1" style="stop-color:#DEA074"/>
	</linearGradient>
	<path class="st11" d="M45.78,1.02c0,0-1.35-0.15-1.81,1.62c-0.33,1.31-0.49,9.43-3.49,16.07c1.16,2.3,2.7,4.43,4.76,6.02
		c0.5-0.06,1.62-0.37,2.23-2.05c0.79-2.21,3.05-21.36,5.64-21.66H45.78z"/>
	<path class="st12" d="M45.26,24.73c0,0-0.01-0.01-0.01-0.01c-0.05,0.01-0.09,0.01-0.12,0.01H45.26z"/>
	<path class="st12" d="M40.48,18.7c-3.34-6.63-3.51-14.75-3.88-16.07c-0.5-1.77-2.01-1.62-2.01-1.62h-0.73h-7.33h-0.08
		c1.45,0.15,2.8,5.06,3.9,10.19c1.09,5.08,1.93,10.36,2.36,11.46c0.88,2.21,2.76,2.06,2.76,2.06h0.71h8.8h0.13
		c0.04,0,0.08,0,0.12-0.01C43.18,23.13,41.64,21,40.48,18.7z"/>
	<path class="st12" d="M6.71,1.02c0.01,0,0.01,0,0.02,0c0.02,0,0.04,0,0.06,0H6.71z"/>
	<path class="st12" d="M21,19.21c-3.59-6.72-3.76-15.23-4.14-16.57c-0.5-1.77-2.01-1.62-2.01-1.62h-0.58H6.94H6.79
		c-0.02,0-0.04,0-0.06,0c1.08,0.15,2.12,2.95,3.03,6.5c1.5,5.87,2.68,13.78,3.22,15.15c0.88,2.21,2.76,2.06,2.76,2.06h1.21h8.57
		C23.59,23.25,22.13,21.32,21,19.21z"/>
</g>
</svg>
